[
  {
    "elementType": "labels.text.fill",
    "stylers": [
      {
        "color": "#7c93a3"
      },
      {
        "lightness": "-10"
      }
    ]
  },
  {
    "featureType": "administrative.country",
    "elementType": "geometry",
    "stylers": [
      {
        "visibility": "on"
      }
    ]
  },
  {
    "featureType": "administrative.country",
    "elementType": "geometry.stroke",
    "stylers": [
      {
        "color": "#a0a4a5"
      }
    ]
  },
  {
    "featureType": "administrative.province",
    "elementType": "geometry.stroke",
    "stylers": [
      {
        "color": "#62838e"
      }
    ]
  },
  {
    "featureType": "landscape",
    "stylers": [
      {
        "lightness": "-29"
      },
      {
        "visibility": "off"
      }
    ]
  },
  {
    "featureType": "landscape",
    "elementType": "geometry.fill",
    "stylers": [
      {
        "color": "#dde3e3"
      }
    ]
  },
  {
    "featureType": "landscape.man_made",
    "stylers": [
      {
        "visibility": "off"
      }
    ]
  },
  {
    "featureType": "landscape.man_made",
    "elementType": "geometry",
    "stylers": [
      {
        "visibility": "off"
      }
    ]
  },
  {
    "featureType": "landscape.man_made",
    "elementType": "geometry.fill",
    "stylers": [
      {
        "color": "#d2dadf"
      }
    ]
  },
  {
    "featureType": "landscape.man_made",
    "elementType": "geometry.stroke",
    "stylers": [
      {
        "color": "#3f4a51"
      },
      {
        "lightness": "74"
      },
      {
        "visibility": "on"
      },
      {
        "weight": "0.30"
      }
    ]
  },
  {
    "featureType": "poi.attraction",
    "stylers": [
      {
        "visibility": "on"
      }
    ]
  },
  {
    "featureType": "poi.business",
    "stylers": [
      {
        "visibility": "off"
      }
    ]
  },
  {
    "featureType": "poi.government",
    "stylers": [
      {
        "visibility": "off"
      }
    ]
  },
  {
    "featureType": "poi.medical",
    "stylers": [
      {
        "visibility": "on"
      }
    ]
  },
  {
    "featureType": "poi.park",
    "stylers": [
      {
        "visibility": "on"
      }
    ]
  },
  {
    "featureType": "poi.park",
    "elementType": "labels.text",
    "stylers": [
      {
        "visibility": "off"
      }
    ]
  },
  {
    "featureType": "poi.place_of_worship",
    "stylers": [
      {
        "visibility": "on"
      }
    ]
  },
  {
    "featureType": "poi.school",
    "stylers": [
      {
        "visibility": "off"
      }
    ]
  },
  {
    "featureType": "poi.sports_complex",
    "stylers": [
      {
        "visibility": "off"
      }
    ]
  },
  {
    "featureType": "road",
    "stylers": [
      {
        "saturation": "-100"
      }
    ]
  },
  {
    "featureType": "road",
    "elementType": "geometry.stroke",
    "stylers": [
      {
        "visibility": "on"
      }
    ]
  },
  {
    "featureType": "road.arterial",
    "elementType": "labels.icon",
    "stylers": [
      {
        "saturation": "-7"
      },
      {
        "invert_lightness": true
      },
      {
        "lightness": "3"
      },
      {
        "gamma": "1.80"
      },
      {
        "weight": "0.01"
      }
    ]
  },
  {
    "featureType": "road.highway",
    "elementType": "geometry.fill",
    "stylers": [
      {
        "color": "#bbcacf"
      }
    ]
  },
  {
    "featureType": "road.highway",
    "elementType": "geometry.stroke",
    "stylers": [
      {
        "color": "#bbcacf"
      },
      {
        "lightness": "0"
      },
      {
        "weight": "0.50"
      }
    ]
  },
  {
    "featureType": "road.highway",
    "elementType": "labels.text",
    "stylers": [
      {
        "visibility": "on"
      }
    ]
  },
  {
    "featureType": "road.highway.controlled_access",
    "elementType": "geometry.fill",
    "stylers": [
      {
        "color": "#ffffff"
      }
    ]
  },
  {
    "featureType": "road.highway.controlled_access",
    "elementType": "geometry.stroke",
    "stylers": [
      {
        "color": "#a9b4b8"
      }
    ]
  },
  {
    "featureType": "transit.station.bus",
    "stylers": [
      {
        "visibility": "on"
      }
    ]
  },
  {
    "featureType": "water",
    "elementType": "geometry.fill",
    "stylers": [
      {
        "color": "#87dbdf"
      }
    ]
  }
]
